{"failedCount":1,"prefixedPath":"src\/test\/java\/com\/retokarate\/features\/gestionusuarios.feature","packageQualifiedName":"src.test.java.com.retokarate.features.gestionusuarios","loopIndex":-1,"relativePath":"src\/test\/java\/com\/retokarate\/features\/gestionusuarios.feature","scenarioResults":[{"sectionIndex":0,"stepResults":[{"result":{"nanos":43524200,"millis":43.5242,"status":"passed"},"step":{"background":true,"line":4,"prefix":"*","index":0,"text":"url 'https:\/\/reqres.in\/api'"}},{"result":{"nanos":267100,"millis":0.2671,"status":"passed"},"step":{"line":7,"prefix":"Given","index":0,"text":"path 'users\/2'"}},{"result":{"nanos":478269800,"millis":478.2698,"status":"passed"},"step":{"line":8,"prefix":"When","index":1,"text":"method get"},"stepLog":"02:42:44.486 request:\n1 > GET https:\/\/reqres.in\/api\/users\/2\n1 > Host: reqres.in\n1 > Connection: Keep-Alive\n1 > User-Agent: Apache-HttpClient\/4.5.13 (Java\/17.0.8.1)\n1 > Accept-Encoding: gzip,deflate\n\n\n02:42:44.819 response time in milliseconds: 331\n1 < 200\n1 < Date: Fri, 28 Jun 2024 07:42:44 GMT\n1 < Content-Type: application\/json; charset=utf-8\n1 < Transfer-Encoding: chunked\n1 < Connection: keep-alive\n1 < Report-To: {\"group\":\"heroku-nel\",\"max_age\":3600,\"endpoints\":[{\"url\":\"https:\/\/nel.heroku.com\/reports?ts=1719345273&sid=c4c9725f-1ab0-44d8-820f-430df2718e11&s=gEFO39zmqisbWoDdWV%2B8UOblop5bAbOTAEDKSOCGQbY%3D\"}]}\n1 < Reporting-Endpoints: heroku-nel=https:\/\/nel.heroku.com\/reports?ts=1719345273&sid=c4c9725f-1ab0-44d8-820f-430df2718e11&s=gEFO39zmqisbWoDdWV%2B8UOblop5bAbOTAEDKSOCGQbY%3D\n1 < Nel: {\"report_to\":\"heroku-nel\",\"max_age\":3600,\"success_fraction\":0.005,\"failure_fraction\":0.05,\"response_headers\":[\"Via\"]}\n1 < X-Powered-By: Express\n1 < Access-Control-Allow-Origin: *\n1 < Etag: W\/\"118-pbdwwFo9SKNhD3Lx5iHJyngpq00\"\n1 < Via: 1.1 vegur\n1 < Cache-Control: max-age=14400\n1 < CF-Cache-Status: HIT\n1 < Age: 419\n1 < Vary: Accept-Encoding\n1 < Server: cloudflare\n1 < CF-RAY: 89ac0ab87b6425a1-MIA\n{\"data\":{\"id\":2,\"email\":\"janet.weaver@reqres.in\",\"first_name\":\"Janet\",\"last_name\":\"Weaver\",\"avatar\":\"https:\/\/reqres.in\/img\/faces\/2-image.jpg\"},\"support\":{\"url\":\"https:\/\/reqres.in\/#support-heading\",\"text\":\"To keep ReqRes free, contributions towards server costs are appreciated!\"}}\n\n"},{"result":{"nanos":12300,"millis":0.0123,"status":"passed"},"step":{"line":9,"prefix":"Then","index":2,"text":"status 200"}},{"result":{"nanos":30188400,"millis":30.1884,"status":"passed"},"step":{"line":10,"prefix":"And","index":3,"text":"match response.data.id == 2"}},{"result":{"nanos":758700,"millis":0.7587,"status":"passed"},"step":{"line":11,"prefix":"And","index":4,"text":"match response.data.email == \"janet.weaver@reqres.in\""}}],"executorName":"Test worker","line":6,"name":"Consultar usuario con ID valido","description":"","durationMillis":553.0205,"startTime":1719560564313,"failed":false,"refId":"[1:6]","endTime":1719560564876,"exampleIndex":-1},{"sectionIndex":1,"stepResults":[{"result":{"nanos":306500,"millis":0.3065,"status":"passed"},"step":{"background":true,"line":4,"prefix":"*","index":0,"text":"url 'https:\/\/reqres.in\/api'"}},{"result":{"nanos":171500,"millis":0.1715,"status":"passed"},"step":{"line":14,"prefix":"Given","index":0,"text":"path 'users\/200'"}},{"result":{"nanos":220054300,"millis":220.0543,"status":"passed"},"step":{"line":15,"prefix":"When","index":1,"text":"method get"},"stepLog":"02:42:44.885 request:\n1 > GET https:\/\/reqres.in\/api\/users\/200\n1 > Host: reqres.in\n1 > Connection: Keep-Alive\n1 > User-Agent: Apache-HttpClient\/4.5.13 (Java\/17.0.8.1)\n1 > Accept-Encoding: gzip,deflate\n\n\n02:42:45.103 response time in milliseconds: 218\n1 < 404\n1 < Date: Fri, 28 Jun 2024 07:42:44 GMT\n1 < Content-Type: application\/json; charset=utf-8\n1 < Content-Length: 2\n1 < Connection: keep-alive\n1 < Report-To: {\"group\":\"heroku-nel\",\"max_age\":3600,\"endpoints\":[{\"url\":\"https:\/\/nel.heroku.com\/reports?ts=1719560543&sid=c4c9725f-1ab0-44d8-820f-430df2718e11&s=sNG9pDhG%2B4dvXySwK4XFoLh2hctWAl%2B7h2WKbMDABQ4%3D\"}]}\n1 < Reporting-Endpoints: heroku-nel=https:\/\/nel.heroku.com\/reports?ts=1719560543&sid=c4c9725f-1ab0-44d8-820f-430df2718e11&s=sNG9pDhG%2B4dvXySwK4XFoLh2hctWAl%2B7h2WKbMDABQ4%3D\n1 < Nel: {\"report_to\":\"heroku-nel\",\"max_age\":3600,\"success_fraction\":0.005,\"failure_fraction\":0.05,\"response_headers\":[\"Via\"]}\n1 < X-Powered-By: Express\n1 < Access-Control-Allow-Origin: *\n1 < Etag: W\/\"2-vyGp6PvFo4RvsFtPoIWeCReyIC8\"\n1 < Via: 1.1 vegur\n1 < Cache-Control: max-age=14400\n1 < CF-Cache-Status: HIT\n1 < Age: 21\n1 < Vary: Accept-Encoding\n1 < Server: cloudflare\n1 < CF-RAY: 89ac0aba4ce35c6b-MIA\n{}\n\n"},{"result":{"nanos":5500,"millis":0.0055,"status":"passed"},"step":{"line":16,"prefix":"Then","index":2,"text":"status 404"}}],"executorName":"Test worker","line":13,"name":"Consultar usuario con ID invalido","description":"","durationMillis":220.5378,"startTime":1719560564883,"failed":false,"refId":"[2:13]","endTime":1719560565104,"exampleIndex":-1},{"sectionIndex":2,"stepResults":[{"result":{"nanos":185100,"millis":0.1851,"status":"passed"},"step":{"background":true,"line":4,"prefix":"*","index":0,"text":"url 'https:\/\/reqres.in\/api'"}},{"result":{"nanos":323500,"millis":0.3235,"status":"passed"},"step":{"line":19,"prefix":"Given","index":0,"text":"path 'users\/2'"}},{"result":{"nanos":1194000,"millis":1.194,"status":"passed"},"step":{"line":20,"prefix":"And","index":1,"text":"request { \"firstname\": \"jhojan\", \"email\": \"jc.kmilo22@gmail.com\" }"}},{"result":{"nanos":488220400,"millis":488.2204,"status":"passed"},"step":{"line":21,"prefix":"When","index":2,"text":"method put"},"stepLog":"02:42:45.147 request:\n1 > PUT https:\/\/reqres.in\/api\/users\/2\n1 > Content-Type: application\/json; charset=UTF-8\n1 > Content-Length: 53\n1 > Host: reqres.in\n1 > Connection: Keep-Alive\n1 > User-Agent: Apache-HttpClient\/4.5.13 (Java\/17.0.8.1)\n1 > Accept-Encoding: gzip,deflate\n{\"firstname\":\"jhojan\",\"email\":\"jc.kmilo22@gmail.com\"}\n\n02:42:45.598 response time in milliseconds: 451\n1 < 200\n1 < Date: Fri, 28 Jun 2024 07:42:45 GMT\n1 < Content-Type: application\/json; charset=utf-8\n1 < Transfer-Encoding: chunked\n1 < Connection: keep-alive\n1 < Report-To: {\"group\":\"heroku-nel\",\"max_age\":3600,\"endpoints\":[{\"url\":\"https:\/\/nel.heroku.com\/reports?ts=1719560565&sid=c4c9725f-1ab0-44d8-820f-430df2718e11&s=186EKeJofoBpmAS2KtfP6dSv0etplyPffsBubfBzz3c%3D\"}]}\n1 < Reporting-Endpoints: heroku-nel=https:\/\/nel.heroku.com\/reports?ts=1719560565&sid=c4c9725f-1ab0-44d8-820f-430df2718e11&s=186EKeJofoBpmAS2KtfP6dSv0etplyPffsBubfBzz3c%3D\n1 < Nel: {\"report_to\":\"heroku-nel\",\"max_age\":3600,\"success_fraction\":0.005,\"failure_fraction\":0.05,\"response_headers\":[\"Via\"]}\n1 < X-Powered-By: Express\n1 < Access-Control-Allow-Origin: *\n1 < Etag: W\/\"5c-WKXuU7XnIYYVV4CW3Hg9nxS6pmQ\"\n1 < Via: 1.1 vegur\n1 < CF-Cache-Status: DYNAMIC\n1 < Vary: Accept-Encoding\n1 < Server: cloudflare\n1 < CF-RAY: 89ac0abbeb37da01-MIA\n{\"firstname\":\"jhojan\",\"email\":\"jc.kmilo22@gmail.com\",\"updatedAt\":\"2024-06-28T07:42:45.298Z\"}\n\n"},{"result":{"nanos":5900,"millis":0.0059,"status":"passed"},"step":{"line":22,"prefix":"Then","index":3,"text":"status 200"}},{"result":{"nanos":913700,"millis":0.9137,"status":"passed"},"step":{"line":23,"prefix":"And","index":4,"text":"match response.firstname == \"jhojan\""}},{"result":{"nanos":515700,"millis":0.5157,"status":"passed"},"step":{"line":24,"prefix":"And","index":5,"text":"match response.email == \"jc.kmilo22@gmail.com\""}}],"executorName":"Test worker","line":18,"name":"actualizar usuario","description":"","durationMillis":491.3583,"startTime":1719560565109,"failed":false,"refId":"[3:18]","endTime":1719560565600,"exampleIndex":-1},{"sectionIndex":3,"stepResults":[{"result":{"nanos":102500,"millis":0.1025,"status":"passed"},"step":{"background":true,"line":4,"prefix":"*","index":0,"text":"url 'https:\/\/reqres.in\/api'"}},{"result":{"nanos":56100,"millis":0.0561,"status":"passed"},"step":{"line":28,"prefix":"Given","index":0,"text":"path 'users\/2'"}},{"result":{"nanos":453456900,"millis":453.4569,"status":"passed"},"step":{"line":29,"prefix":"When","index":1,"text":"method delete"},"stepLog":"02:42:45.605 request:\n1 > DELETE https:\/\/reqres.in\/api\/users\/2\n1 > Host: reqres.in\n1 > Connection: Keep-Alive\n1 > User-Agent: Apache-HttpClient\/4.5.13 (Java\/17.0.8.1)\n1 > Accept-Encoding: gzip,deflate\n\n\n02:42:46.057 response time in milliseconds: 452\n1 < 204\n1 < Date: Fri, 28 Jun 2024 07:42:45 GMT\n1 < Content-Length: 0\n1 < Connection: keep-alive\n1 < Report-To: {\"group\":\"heroku-nel\",\"max_age\":3600,\"endpoints\":[{\"url\":\"https:\/\/nel.heroku.com\/reports?ts=1719560565&sid=c4c9725f-1ab0-44d8-820f-430df2718e11&s=186EKeJofoBpmAS2KtfP6dSv0etplyPffsBubfBzz3c%3D\"}]}\n1 < Reporting-Endpoints: heroku-nel=https:\/\/nel.heroku.com\/reports?ts=1719560565&sid=c4c9725f-1ab0-44d8-820f-430df2718e11&s=186EKeJofoBpmAS2KtfP6dSv0etplyPffsBubfBzz3c%3D\n1 < Nel: {\"report_to\":\"heroku-nel\",\"max_age\":3600,\"success_fraction\":0.005,\"failure_fraction\":0.05,\"response_headers\":[\"Via\"]}\n1 < X-Powered-By: Express\n1 < Access-Control-Allow-Origin: *\n1 < Etag: W\/\"2-vyGp6PvFo4RvsFtPoIWeCReyIC8\"\n1 < Via: 1.1 vegur\n1 < CF-Cache-Status: DYNAMIC\n1 < Server: cloudflare\n1 < CF-RAY: 89ac0abec8a43340-MIA\n\n\n"},{"result":{"nanos":5300,"millis":0.0053,"status":"passed"},"step":{"line":30,"prefix":"Then","index":2,"text":"status 204"}}],"executorName":"Test worker","line":27,"name":"Delete a user","description":"","durationMillis":453.6208,"startTime":1719560565604,"failed":false,"refId":"[4:27]","endTime":1719560566058,"exampleIndex":-1},{"sectionIndex":4,"stepResults":[{"result":{"nanos":139300,"millis":0.1393,"status":"passed"},"step":{"background":true,"line":4,"prefix":"*","index":0,"text":"url 'https:\/\/reqres.in\/api'"}},{"result":{"nanos":301100,"millis":0.3011,"status":"passed"},"step":{"line":33,"prefix":"Given","index":0,"text":"path 'users'"}},{"result":{"nanos":218857500,"millis":218.8575,"status":"passed"},"step":{"line":34,"prefix":"When","index":1,"text":"method get"},"stepLog":"02:42:46.063 request:\n1 > GET https:\/\/reqres.in\/api\/users\n1 > Host: reqres.in\n1 > Connection: Keep-Alive\n1 > User-Agent: Apache-HttpClient\/4.5.13 (Java\/17.0.8.1)\n1 > Accept-Encoding: gzip,deflate\n\n\n02:42:46.281 response time in milliseconds: 218\n1 < 200\n1 < Date: Fri, 28 Jun 2024 07:42:46 GMT\n1 < Content-Type: application\/json; charset=utf-8\n1 < Transfer-Encoding: chunked\n1 < Connection: keep-alive\n1 < Report-To: {\"group\":\"heroku-nel\",\"max_age\":3600,\"endpoints\":[{\"url\":\"https:\/\/nel.heroku.com\/reports?ts=1719419843&sid=c4c9725f-1ab0-44d8-820f-430df2718e11&s=xq3pe%2FZ6OyzGa%2Bl%2BDT4bJx872bi6uoI9HluJXDJZE4k%3D\"}]}\n1 < Reporting-Endpoints: heroku-nel=https:\/\/nel.heroku.com\/reports?ts=1719419843&sid=c4c9725f-1ab0-44d8-820f-430df2718e11&s=xq3pe%2FZ6OyzGa%2Bl%2BDT4bJx872bi6uoI9HluJXDJZE4k%3D\n1 < Nel: {\"report_to\":\"heroku-nel\",\"max_age\":3600,\"success_fraction\":0.005,\"failure_fraction\":0.05,\"response_headers\":[\"Via\"]}\n1 < X-Powered-By: Express\n1 < Access-Control-Allow-Origin: *\n1 < Etag: W\/\"3e4-2RLXvr5wTg9YQ6aH95CkYoFNuO8\"\n1 < Via: 1.1 vegur\n1 < Cache-Control: max-age=14400\n1 < CF-Cache-Status: HIT\n1 < Age: 21\n1 < Vary: Accept-Encoding\n1 < Server: cloudflare\n1 < CF-RAY: 89ac0ac1ad74a527-MIA\n{\"page\":1,\"per_page\":6,\"total\":12,\"total_pages\":2,\"data\":[{\"id\":1,\"email\":\"george.bluth@reqres.in\",\"first_name\":\"George\",\"last_name\":\"Bluth\",\"avatar\":\"https:\/\/reqres.in\/img\/faces\/1-image.jpg\"},{\"id\":2,\"email\":\"janet.weaver@reqres.in\",\"first_name\":\"Janet\",\"last_name\":\"Weaver\",\"avatar\":\"https:\/\/reqres.in\/img\/faces\/2-image.jpg\"},{\"id\":3,\"email\":\"emma.wong@reqres.in\",\"first_name\":\"Emma\",\"last_name\":\"Wong\",\"avatar\":\"https:\/\/reqres.in\/img\/faces\/3-image.jpg\"},{\"id\":4,\"email\":\"eve.holt@reqres.in\",\"first_name\":\"Eve\",\"last_name\":\"Holt\",\"avatar\":\"https:\/\/reqres.in\/img\/faces\/4-image.jpg\"},{\"id\":5,\"email\":\"charles.morris@reqres.in\",\"first_name\":\"Charles\",\"last_name\":\"Morris\",\"avatar\":\"https:\/\/reqres.in\/img\/faces\/5-image.jpg\"},{\"id\":6,\"email\":\"tracey.ramos@reqres.in\",\"first_name\":\"Tracey\",\"last_name\":\"Ramos\",\"avatar\":\"https:\/\/reqres.in\/img\/faces\/6-image.jpg\"}],\"support\":{\"url\":\"https:\/\/reqres.in\/#support-heading\",\"text\":\"To keep ReqRes free, contributions towards server costs are appreciated!\"}}\n\n"},{"result":{"nanos":5700,"millis":0.0057,"status":"passed"},"step":{"line":35,"prefix":"Then","index":2,"text":"status 200"}},{"result":{"nanos":1716200,"errorMessage":"match failed: NOT_EQUALS\n  $ | is equal (NUMBER:NUMBER)\n  2\n  2\n\nsrc\/test\/java\/com\/retokarate\/features\/gestionusuarios.feature:36","millis":1.7162,"status":"failed"},"step":{"line":36,"prefix":"And","index":3,"text":"match response.data[1].id != 2"},"stepLog":"02:42:46.284 src\/test\/java\/com\/retokarate\/features\/gestionusuarios.feature:36\nAnd match response.data[1].id != 2\nmatch failed: NOT_EQUALS\n  $ | is equal (NUMBER:NUMBER)\n  2\n  2\n\nsrc\/test\/java\/com\/retokarate\/features\/gestionusuarios.feature:36\n"}],"line":32,"description":"","durationMillis":221.0198,"failed":true,"error":"match failed: NOT_EQUALS\n  $ | is equal (NUMBER:NUMBER)\n  2\n  2\n\nsrc\/test\/java\/com\/retokarate\/features\/gestionusuarios.feature:36","executorName":"Test worker","name":"Get a list of users","startTime":1719560566063,"refId":"[5:32]","endTime":1719560566284,"exampleIndex":-1}],"callDepth":0,"name":"RetoKarate API Testing","description":"","resultDate":"2024-06-28 02:42:46 a. m.","durationMillis":1939.5572,"passedCount":4}