{"failedCount":0,"prefixedPath":"src\/test\/java\/com\/example\/karate\/features\/gestionusuarios.feature","packageQualifiedName":"src.test.java.com.example.karate.features.gestionusuarios","loopIndex":-1,"relativePath":"src\/test\/java\/com\/example\/karate\/features\/gestionusuarios.feature","scenarioResults":[{"sectionIndex":0,"stepResults":[{"result":{"nanos":42351400,"millis":42.3514,"status":"passed"},"step":{"background":true,"line":4,"prefix":"*","index":0,"text":"url 'https:\/\/reqres.in\/api'"}},{"result":{"nanos":255500,"millis":0.2555,"status":"passed"},"step":{"line":7,"prefix":"Given","index":0,"text":"path 'users'"}},{"result":{"nanos":31657300,"millis":31.6573,"status":"passed"},"step":{"line":8,"prefix":"And","index":1,"text":"request { \"name\": \"John Doe\", \"job\": \"Engineer\" }"}},{"result":{"nanos":733918800,"millis":733.9188,"status":"passed"},"step":{"line":9,"prefix":"When","index":2,"text":"method post"},"stepLog":"20:34:10.127 request:\n1 > POST https:\/\/reqres.in\/api\/users\n1 > Content-Type: application\/json; charset=UTF-8\n1 > Content-Length: 36\n1 > Host: reqres.in\n1 > Connection: Keep-Alive\n1 > User-Agent: Apache-HttpClient\/4.5.13 (Java\/17.0.8.1)\n1 > Accept-Encoding: gzip,deflate\n{\"name\":\"John Doe\",\"job\":\"Engineer\"}\n\n20:34:10.711 response time in milliseconds: 582\n1 < 201\n1 < Date: Fri, 28 Jun 2024 01:34:10 GMT\n1 < Content-Type: application\/json; charset=utf-8\n1 < Content-Length: 86\n1 < Connection: keep-alive\n1 < Report-To: {\"group\":\"heroku-nel\",\"max_age\":3600,\"endpoints\":[{\"url\":\"https:\/\/nel.heroku.com\/reports?ts=1719538450&sid=c4c9725f-1ab0-44d8-820f-430df2718e11&s=bceFt57xA6yELvPhk6r2A8xEBrdStaMhWoDvdHYFRlc%3D\"}]}\n1 < Reporting-Endpoints: heroku-nel=https:\/\/nel.heroku.com\/reports?ts=1719538450&sid=c4c9725f-1ab0-44d8-820f-430df2718e11&s=bceFt57xA6yELvPhk6r2A8xEBrdStaMhWoDvdHYFRlc%3D\n1 < Nel: {\"report_to\":\"heroku-nel\",\"max_age\":3600,\"success_fraction\":0.005,\"failure_fraction\":0.05,\"response_headers\":[\"Via\"]}\n1 < X-Powered-By: Express\n1 < Access-Control-Allow-Origin: *\n1 < Etag: W\/\"56-LC\/ScTyOnjbZCqfw2hpqlEve2oM\"\n1 < Via: 1.1 vegur\n1 < CF-Cache-Status: DYNAMIC\n1 < Server: cloudflare\n1 < CF-RAY: 89a9eed0ab6c0329-MIA\n{\"name\":\"John Doe\",\"job\":\"Engineer\",\"id\":\"266\",\"createdAt\":\"2024-06-28T01:34:10.223Z\"}\n\n"},{"result":{"nanos":18500,"millis":0.0185,"status":"passed"},"step":{"line":10,"prefix":"Then","index":3,"text":"status 201"}},{"result":{"nanos":23368800,"millis":23.3688,"status":"passed"},"step":{"line":11,"prefix":"And","index":4,"text":"match response.name == \"John Doe\""}},{"result":{"nanos":625300,"millis":0.6253,"status":"passed"},"step":{"line":12,"prefix":"And","index":5,"text":"match response.job == \"Engineer\""}}],"line":16,"description":"","durationMillis":832.1956,"failed":false,"executorName":"Test worker","name":"Create a user","startTime":1719538449896,"refId":"[1.1:16]","endTime":1719538450738,"exampleData":{"name":"John Doe","job":"Engineer"},"exampleIndex":0},{"sectionIndex":0,"stepResults":[{"result":{"nanos":270400,"millis":0.2704,"status":"passed"},"step":{"background":true,"line":4,"prefix":"*","index":0,"text":"url 'https:\/\/reqres.in\/api'"}},{"result":{"nanos":182300,"millis":0.1823,"status":"passed"},"step":{"line":7,"prefix":"Given","index":0,"text":"path 'users'"}},{"result":{"nanos":161300,"millis":0.1613,"status":"passed"},"step":{"line":8,"prefix":"And","index":1,"text":"request { \"name\": \"Jane Doe\", \"job\": \"Doctor\" }"}},{"result":{"nanos":463327000,"millis":463.327,"status":"passed"},"step":{"line":9,"prefix":"When","index":2,"text":"method post"},"stepLog":"20:34:10.748 request:\n1 > POST https:\/\/reqres.in\/api\/users\n1 > Content-Type: application\/json; charset=UTF-8\n1 > Content-Length: 34\n1 > Host: reqres.in\n1 > Connection: Keep-Alive\n1 > User-Agent: Apache-HttpClient\/4.5.13 (Java\/17.0.8.1)\n1 > Accept-Encoding: gzip,deflate\n{\"name\":\"Jane Doe\",\"job\":\"Doctor\"}\n\n20:34:11.210 response time in milliseconds: 462\n1 < 201\n1 < Date: Fri, 28 Jun 2024 01:34:10 GMT\n1 < Content-Type: application\/json; charset=utf-8\n1 < Content-Length: 84\n1 < Connection: keep-alive\n1 < Report-To: {\"group\":\"heroku-nel\",\"max_age\":3600,\"endpoints\":[{\"url\":\"https:\/\/nel.heroku.com\/reports?ts=1719538450&sid=c4c9725f-1ab0-44d8-820f-430df2718e11&s=bceFt57xA6yELvPhk6r2A8xEBrdStaMhWoDvdHYFRlc%3D\"}]}\n1 < Reporting-Endpoints: heroku-nel=https:\/\/nel.heroku.com\/reports?ts=1719538450&sid=c4c9725f-1ab0-44d8-820f-430df2718e11&s=bceFt57xA6yELvPhk6r2A8xEBrdStaMhWoDvdHYFRlc%3D\n1 < Nel: {\"report_to\":\"heroku-nel\",\"max_age\":3600,\"success_fraction\":0.005,\"failure_fraction\":0.05,\"response_headers\":[\"Via\"]}\n1 < X-Powered-By: Express\n1 < Access-Control-Allow-Origin: *\n1 < Etag: W\/\"54-cbVMzA22jKhNKu2kMNqor57UIHI\"\n1 < Via: 1.1 vegur\n1 < CF-Cache-Status: DYNAMIC\n1 < Server: cloudflare\n1 < CF-RAY: 89a9eed3dc61a540-MIA\n{\"name\":\"Jane Doe\",\"job\":\"Doctor\",\"id\":\"836\",\"createdAt\":\"2024-06-28T01:34:10.726Z\"}\n\n"},{"result":{"nanos":7500,"millis":0.0075,"status":"passed"},"step":{"line":10,"prefix":"Then","index":3,"text":"status 201"}},{"result":{"nanos":844900,"millis":0.8449,"status":"passed"},"step":{"line":11,"prefix":"And","index":4,"text":"match response.name == \"Jane Doe\""}},{"result":{"nanos":515700,"millis":0.5157,"status":"passed"},"step":{"line":12,"prefix":"And","index":5,"text":"match response.job == \"Doctor\""}}],"line":17,"description":"","durationMillis":465.3091,"failed":false,"executorName":"Test worker","name":"Create a user","startTime":1719538450747,"refId":"[1.2:17]","endTime":1719538451212,"exampleData":{"name":"Jane Doe","job":"Doctor"},"exampleIndex":1},{"sectionIndex":1,"stepResults":[{"result":{"nanos":126000,"millis":0.126,"status":"passed"},"step":{"background":true,"line":4,"prefix":"*","index":0,"text":"url 'https:\/\/reqres.in\/api'"}},{"result":{"nanos":202400,"millis":0.2024,"status":"passed"},"step":{"line":20,"prefix":"Given","index":0,"text":"path 'users\/2'"}},{"result":{"nanos":212987800,"millis":212.9878,"status":"passed"},"step":{"line":21,"prefix":"When","index":1,"text":"method get"},"stepLog":"20:34:11.220 request:\n1 > GET https:\/\/reqres.in\/api\/users\/2\n1 > Host: reqres.in\n1 > Connection: Keep-Alive\n1 > User-Agent: Apache-HttpClient\/4.5.13 (Java\/17.0.8.1)\n1 > Accept-Encoding: gzip,deflate\n\n\n20:34:11.431 response time in milliseconds: 211\n1 < 200\n1 < Date: Fri, 28 Jun 2024 01:34:11 GMT\n1 < Content-Type: application\/json; charset=utf-8\n1 < Transfer-Encoding: chunked\n1 < Connection: keep-alive\n1 < Report-To: {\"group\":\"heroku-nel\",\"max_age\":3600,\"endpoints\":[{\"url\":\"https:\/\/nel.heroku.com\/reports?ts=1719345273&sid=c4c9725f-1ab0-44d8-820f-430df2718e11&s=gEFO39zmqisbWoDdWV%2B8UOblop5bAbOTAEDKSOCGQbY%3D\"}]}\n1 < Reporting-Endpoints: heroku-nel=https:\/\/nel.heroku.com\/reports?ts=1719345273&sid=c4c9725f-1ab0-44d8-820f-430df2718e11&s=gEFO39zmqisbWoDdWV%2B8UOblop5bAbOTAEDKSOCGQbY%3D\n1 < Nel: {\"report_to\":\"heroku-nel\",\"max_age\":3600,\"success_fraction\":0.005,\"failure_fraction\":0.05,\"response_headers\":[\"Via\"]}\n1 < X-Powered-By: Express\n1 < Access-Control-Allow-Origin: *\n1 < Etag: W\/\"118-pbdwwFo9SKNhD3Lx5iHJyngpq00\"\n1 < Via: 1.1 vegur\n1 < Cache-Control: max-age=14400\n1 < CF-Cache-Status: HIT\n1 < Age: 5281\n1 < Vary: Accept-Encoding\n1 < Server: cloudflare\n1 < CF-RAY: 89a9eed6bb793367-MIA\n{\"data\":{\"id\":2,\"email\":\"janet.weaver@reqres.in\",\"first_name\":\"Janet\",\"last_name\":\"Weaver\",\"avatar\":\"https:\/\/reqres.in\/img\/faces\/2-image.jpg\"},\"support\":{\"url\":\"https:\/\/reqres.in\/#support-heading\",\"text\":\"To keep ReqRes free, contributions towards server costs are appreciated!\"}}\n\n"},{"result":{"nanos":5900,"millis":0.0059,"status":"passed"},"step":{"line":22,"prefix":"Then","index":2,"text":"status 200"}},{"result":{"nanos":5000900,"millis":5.0009,"status":"passed"},"step":{"line":23,"prefix":"And","index":3,"text":"match response.data.id == 2"}}],"executorName":"Test worker","line":19,"name":"Get a user by ID","description":"","durationMillis":218.323,"startTime":1719538451219,"failed":false,"refId":"[2:19]","endTime":1719538451437,"exampleIndex":-1},{"sectionIndex":2,"stepResults":[{"result":{"nanos":164900,"millis":0.1649,"status":"passed"},"step":{"background":true,"line":4,"prefix":"*","index":0,"text":"url 'https:\/\/reqres.in\/api'"}},{"result":{"nanos":92100,"millis":0.0921,"status":"passed"},"step":{"line":26,"prefix":"Given","index":0,"text":"path 'users\/2'"}},{"result":{"nanos":236800,"millis":0.2368,"status":"passed"},"step":{"line":27,"prefix":"And","index":1,"text":"request { \"name\": \"John\", \"job\": \"Manager\" }"}},{"result":{"nanos":461233400,"millis":461.2334,"status":"passed"},"step":{"line":28,"prefix":"When","index":2,"text":"method put"},"stepLog":"20:34:11.445 request:\n1 > PUT https:\/\/reqres.in\/api\/users\/2\n1 > Content-Type: application\/json; charset=UTF-8\n1 > Content-Length: 31\n1 > Host: reqres.in\n1 > Connection: Keep-Alive\n1 > User-Agent: Apache-HttpClient\/4.5.13 (Java\/17.0.8.1)\n1 > Accept-Encoding: gzip,deflate\n{\"name\":\"John\",\"job\":\"Manager\"}\n\n20:34:11.904 response time in milliseconds: 459\n1 < 200\n1 < Date: Fri, 28 Jun 2024 01:34:11 GMT\n1 < Content-Type: application\/json; charset=utf-8\n1 < Transfer-Encoding: chunked\n1 < Connection: keep-alive\n1 < Report-To: {\"group\":\"heroku-nel\",\"max_age\":3600,\"endpoints\":[{\"url\":\"https:\/\/nel.heroku.com\/reports?ts=1719538451&sid=c4c9725f-1ab0-44d8-820f-430df2718e11&s=mG2Pkru2%2BiykFSNMlOC1VKLEdvi1r%2BklAN%2BeE3dGKPY%3D\"}]}\n1 < Reporting-Endpoints: heroku-nel=https:\/\/nel.heroku.com\/reports?ts=1719538451&sid=c4c9725f-1ab0-44d8-820f-430df2718e11&s=mG2Pkru2%2BiykFSNMlOC1VKLEdvi1r%2BklAN%2BeE3dGKPY%3D\n1 < Nel: {\"report_to\":\"heroku-nel\",\"max_age\":3600,\"success_fraction\":0.005,\"failure_fraction\":0.05,\"response_headers\":[\"Via\"]}\n1 < X-Powered-By: Express\n1 < Access-Control-Allow-Origin: *\n1 < Etag: W\/\"46-nzhkabjXGa1b34Jm0NwY\/v4wVc8\"\n1 < Via: 1.1 vegur\n1 < CF-Cache-Status: DYNAMIC\n1 < Vary: Accept-Encoding\n1 < Server: cloudflare\n1 < CF-RAY: 89a9eed82c749acf-MIA\n{\"name\":\"John\",\"job\":\"Manager\",\"updatedAt\":\"2024-06-28T01:34:11.419Z\"}\n\n"},{"result":{"nanos":6200,"millis":0.0062,"status":"passed"},"step":{"line":29,"prefix":"Then","index":3,"text":"status 200"}},{"result":{"nanos":830400,"millis":0.8304,"status":"passed"},"step":{"line":30,"prefix":"And","index":4,"text":"match response.name == \"John\""}},{"result":{"nanos":512700,"millis":0.5127,"status":"passed"},"step":{"line":31,"prefix":"And","index":5,"text":"match response.job == \"Manager\""}}],"executorName":"Test worker","line":25,"name":"Update a user","description":"","durationMillis":463.0765,"startTime":1719538451442,"failed":false,"refId":"[3:25]","endTime":1719538451906,"exampleIndex":-1},{"sectionIndex":3,"stepResults":[{"result":{"nanos":343100,"millis":0.3431,"status":"passed"},"step":{"background":true,"line":4,"prefix":"*","index":0,"text":"url 'https:\/\/reqres.in\/api'"}},{"result":{"nanos":186500,"millis":0.1865,"status":"passed"},"step":{"line":34,"prefix":"Given","index":0,"text":"path 'users\/2'"}},{"result":{"nanos":463158700,"millis":463.1587,"status":"passed"},"step":{"line":35,"prefix":"When","index":1,"text":"method delete"},"stepLog":"20:34:11.911 request:\n1 > DELETE https:\/\/reqres.in\/api\/users\/2\n1 > Host: reqres.in\n1 > Connection: Keep-Alive\n1 > User-Agent: Apache-HttpClient\/4.5.13 (Java\/17.0.8.1)\n1 > Accept-Encoding: gzip,deflate\n\n\n20:34:12.373 response time in milliseconds: 462\n1 < 204\n1 < Date: Fri, 28 Jun 2024 01:34:11 GMT\n1 < Content-Length: 0\n1 < Connection: keep-alive\n1 < Report-To: {\"group\":\"heroku-nel\",\"max_age\":3600,\"endpoints\":[{\"url\":\"https:\/\/nel.heroku.com\/reports?ts=1719538451&sid=c4c9725f-1ab0-44d8-820f-430df2718e11&s=mG2Pkru2%2BiykFSNMlOC1VKLEdvi1r%2BklAN%2BeE3dGKPY%3D\"}]}\n1 < Reporting-Endpoints: heroku-nel=https:\/\/nel.heroku.com\/reports?ts=1719538451&sid=c4c9725f-1ab0-44d8-820f-430df2718e11&s=mG2Pkru2%2BiykFSNMlOC1VKLEdvi1r%2BklAN%2BeE3dGKPY%3D\n1 < Nel: {\"report_to\":\"heroku-nel\",\"max_age\":3600,\"success_fraction\":0.005,\"failure_fraction\":0.05,\"response_headers\":[\"Via\"]}\n1 < X-Powered-By: Express\n1 < Access-Control-Allow-Origin: *\n1 < Etag: W\/\"2-vyGp6PvFo4RvsFtPoIWeCReyIC8\"\n1 < Via: 1.1 vegur\n1 < CF-Cache-Status: DYNAMIC\n1 < Server: cloudflare\n1 < CF-RAY: 89a9eedb0b4adaed-MIA\n\n\n"},{"result":{"nanos":6100,"millis":0.0061,"status":"passed"},"step":{"line":36,"prefix":"Then","index":2,"text":"status 204"}}],"executorName":"Test worker","line":33,"name":"Delete a user","description":"","durationMillis":463.6944,"startTime":1719538451910,"failed":false,"refId":"[4:33]","endTime":1719538452374,"exampleIndex":-1},{"sectionIndex":4,"stepResults":[{"result":{"nanos":155400,"millis":0.1554,"status":"passed"},"step":{"background":true,"line":4,"prefix":"*","index":0,"text":"url 'https:\/\/reqres.in\/api'"}},{"result":{"nanos":306600,"millis":0.3066,"status":"passed"},"step":{"line":39,"prefix":"Given","index":0,"text":"path 'users'"}},{"result":{"nanos":215818000,"millis":215.818,"status":"passed"},"step":{"line":40,"prefix":"When","index":1,"text":"method get"},"stepLog":"20:34:12.379 request:\n1 > GET https:\/\/reqres.in\/api\/users\n1 > Host: reqres.in\n1 > Connection: Keep-Alive\n1 > User-Agent: Apache-HttpClient\/4.5.13 (Java\/17.0.8.1)\n1 > Accept-Encoding: gzip,deflate\n\n\n20:34:12.594 response time in milliseconds: 214\n1 < 200\n1 < Date: Fri, 28 Jun 2024 01:34:12 GMT\n1 < Content-Type: application\/json; charset=utf-8\n1 < Transfer-Encoding: chunked\n1 < Connection: keep-alive\n1 < Report-To: {\"group\":\"heroku-nel\",\"max_age\":3600,\"endpoints\":[{\"url\":\"https:\/\/nel.heroku.com\/reports?ts=1719419843&sid=c4c9725f-1ab0-44d8-820f-430df2718e11&s=xq3pe%2FZ6OyzGa%2Bl%2BDT4bJx872bi6uoI9HluJXDJZE4k%3D\"}]}\n1 < Reporting-Endpoints: heroku-nel=https:\/\/nel.heroku.com\/reports?ts=1719419843&sid=c4c9725f-1ab0-44d8-820f-430df2718e11&s=xq3pe%2FZ6OyzGa%2Bl%2BDT4bJx872bi6uoI9HluJXDJZE4k%3D\n1 < Nel: {\"report_to\":\"heroku-nel\",\"max_age\":3600,\"success_fraction\":0.005,\"failure_fraction\":0.05,\"response_headers\":[\"Via\"]}\n1 < X-Powered-By: Express\n1 < Access-Control-Allow-Origin: *\n1 < Etag: W\/\"3e4-2RLXvr5wTg9YQ6aH95CkYoFNuO8\"\n1 < Via: 1.1 vegur\n1 < Cache-Control: max-age=14400\n1 < CF-Cache-Status: HIT\n1 < Age: 5247\n1 < Vary: Accept-Encoding\n1 < Server: cloudflare\n1 < CF-RAY: 89a9eede0cf03367-MIA\n{\"page\":1,\"per_page\":6,\"total\":12,\"total_pages\":2,\"data\":[{\"id\":1,\"email\":\"george.bluth@reqres.in\",\"first_name\":\"George\",\"last_name\":\"Bluth\",\"avatar\":\"https:\/\/reqres.in\/img\/faces\/1-image.jpg\"},{\"id\":2,\"email\":\"janet.weaver@reqres.in\",\"first_name\":\"Janet\",\"last_name\":\"Weaver\",\"avatar\":\"https:\/\/reqres.in\/img\/faces\/2-image.jpg\"},{\"id\":3,\"email\":\"emma.wong@reqres.in\",\"first_name\":\"Emma\",\"last_name\":\"Wong\",\"avatar\":\"https:\/\/reqres.in\/img\/faces\/3-image.jpg\"},{\"id\":4,\"email\":\"eve.holt@reqres.in\",\"first_name\":\"Eve\",\"last_name\":\"Holt\",\"avatar\":\"https:\/\/reqres.in\/img\/faces\/4-image.jpg\"},{\"id\":5,\"email\":\"charles.morris@reqres.in\",\"first_name\":\"Charles\",\"last_name\":\"Morris\",\"avatar\":\"https:\/\/reqres.in\/img\/faces\/5-image.jpg\"},{\"id\":6,\"email\":\"tracey.ramos@reqres.in\",\"first_name\":\"Tracey\",\"last_name\":\"Ramos\",\"avatar\":\"https:\/\/reqres.in\/img\/faces\/6-image.jpg\"}],\"support\":{\"url\":\"https:\/\/reqres.in\/#support-heading\",\"text\":\"To keep ReqRes free, contributions towards server costs are appreciated!\"}}\n\n"},{"result":{"nanos":5700,"millis":0.0057,"status":"passed"},"step":{"line":41,"prefix":"Then","index":2,"text":"status 200"}},{"result":{"nanos":2988800,"millis":2.9888,"status":"passed"},"step":{"line":42,"prefix":"And","index":3,"text":"match response.data[*].id != null"}}],"executorName":"Test worker","line":38,"name":"Get a list of users","description":"","durationMillis":219.2745,"startTime":1719538452378,"failed":false,"refId":"[5:38]","endTime":1719538452598,"exampleIndex":-1}],"callDepth":0,"name":"ReqRes API Testing","description":"","resultDate":"2024-06-27 08:34:12 p. m.","durationMillis":2661.8731,"passedCount":6}